…
# Turns list column, into rows 
ns_get_data(formid) |>
  ns_alter_checkbox(
    to = "list"
  ) |>
  unnest(checkbox_matrix.1) |>
  relocate(checkbox_matrix.1, .after = 2)
#> # A tibble: 5 × 23
#>   `$submission_id` formid checkbox_matrix.1 `$created`  freetext radio checkbox.questionnai…¹ checkbox.events
#>              <int>  <dbl> <chr>             <chr>       <chr>    <int>                  <int>           <int>
#> 1         27685292 123823 colleague         2023-06-01… "some t…     1                      1               1
#> 2         27685292 123823 IT                2023-06-01… "some t…     1                      1               1
#> 3         27685302 123823 internet          2023-06-01… "anothe…    -1                      0               0
#> 4         27685319 123823 colleague         2023-06-01… ""          -1                      1               1
#> 5         27685319 123823 internet          2023-06-01… ""          -1                      1               1
#> # ℹ abbreviated name: ¹​checkbox.questionnaires
#> # ℹ 15 more variables: checkbox.logs <int>, dropdown <int>, radio_matrix.grants <int>,
#> #   radio_matrix.lecture <int>, radio_matrix.email <int>, date <chr>, time <chr>, datetime <chr>,
#> #   number_decimal <chr>, number_integer <int>, slider <int>, attachment_1 <chr>, attachment_2 <chr>,
#> #   `$answer_time_ms` <int>, checkbox_matrix.2 <list>
```

If you are not used to working with list columns,
another option is to work with delimited strings in columns.
In this procedure, you can turn the checkboxes into a character column, where each option in separated by a character of your choosing.


``` r
# As delimited string column
ns_get_data(formid) |>
  ns_alter_checkbox(
    to = "character",
    sep = ";"
  ) |>
  relocate(checkbox_matrix.1, .after = 2)
#>   $submission_id formid checkbox_matrix.1                  $created       freetext radio
#> 1       27685292 123823      colleague;IT 2023-06-01T20:57:15+02:00      some text     1
#> 2       27685302 123823          internet 2023-06-01T20:58:33+02:00 another answer    -1
#>   checkbox.questionnaires checkbox.events checkbox.logs dropdown radio_matrix.grants radio_matrix.lecture
#> 1                       1               1             0        4                   1                    2
#> 2                       0               0             1        9                   3                    3
#>   radio_matrix.email       date  time         datetime number_decimal number_integer slider attachment_1
#> 1                  2 2023-06-01 12:00 2023-06-12T13:33            4.5             77      3    sølvi.png
#> 2                  1 2023-02-07 14:45 2024-02-15T08:55            2.2             45      1             
#>   attachment_2 $answer_time_ms checkbox_matrix.2
#> 1                        74630             admin
#> 2  marius.jpeg           71313       admin;union
#>  [ reached 'max' / getOption("max.print") -- omitted 1 rows ]
…
