Enhanced Workflow with Labelled Data • nettskjemar
…
      Authentication Setup for Nettskjema API

      Fetching Information on Forms

      Enhanced Workflow with Labelled Data

      Working with Nettskjema Form Metadata

      Handling Submissions with the Nettskjema API

  Changelog

      Enhanced Workflow with Labelled Data

      Source: vignettes/labelled_data.Rmd
      labelled_data.Rmd

Introduction to using Labelled data

Labelled data is a type of dataset where variables or their values
contain additional metadata. These datasets, common in tools like SPSS
or Stata, allow for better understanding and documentation of
variables.

The haven package in R is specifically designed for
working with such datasets. It enhances metadata handling by allowing
you to embed variable and value labels directly into your data.

In this vignette, we’ll explore how labelled data works, leveraging
key haven package functionalities to extract, inspect,
and manipulate labels.

Getting labelled data from nettskjemar

library(nettskjemar)

# Replace this with your form ID
formid <- 123823

data <- ns_get_data(formid)
data
#>   formid $submission_id                  $created
#> 1 123823       27685292 2023-06-01T20:57:15+02:00
#>    freetext radio checkbox.questionnaires
#> 1 some text     1                       1
#>   checkbox.events checkbox.logs dropdown
#> 1               1             0        4
#>   radio_matrix.grants radio_matrix.lecture
#> 1                   1                    2
#>   radio_matrix.email checkbox_matrix.1.IT
#> 1                  2                    1
#>   checkbox_matrix.1.colleague
#> 1                           1
#>   checkbox_matrix.1.admin checkbox_matrix.1.union
#> 1                       0                       0
#>   checkbox_matrix.1.internet checkbox_matrix.2.IT
#> 1                          0                    0
#>   checkbox_matrix.2.colleague
#> 1                           0
#>   checkbox_matrix.2.admin checkbox_matrix.2.union
#> 1                       1                       0
#>   checkbox_matrix.2.internet       date  time
#> 1                          0 2023-06-01 12:00
#>           datetime number_decimal number_integer
#> 1 2023-06-12T13:33            4.5             77
#>   slider attachment_1 attachment_2 $answer_time_ms
#> 1      3    sølvi.png                        74630
#>  [ reached 'max' / getOption("max.print") -- omitted 2 rows ]
…
